<?xml version="1.0" encoding="UTF-8"?>
<svg xmlns="http://www.w3.org/2000/svg" xmlns:xlink="http://www.w3.org/1999/xlink" width="504pt" height="504pt" viewBox="0 0 504 504" version="1.1">
<defs>
<g>
<symbol overflow="visible" id="glyph0-0">
<path style="stroke:none;" d="M -8.25 -1.203125 L -8.25 -7.796875 L 0 -7.796875 L 0 -1.203125 Z M -7.8125 -1.640625 L -0.453125 -1.640625 L -0.453125 -7.34375 L -7.8125 -7.34375 Z M -7.8125 -1.640625 "/>
</symbol>
<symbol overflow="visible" id="glyph0-1">
<path style="stroke:none;" d="M -4.125 -6.203125 C -2.75 -6.203125 -1.695312 -5.957031 -0.96875 -5.46875 C -0.238281 -4.988281 0.125 -4.273438 0.125 -3.328125 C 0.125 -2.378906 -0.234375 -1.664062 -0.953125 -1.1875 C -1.679688 -0.707031 -2.738281 -0.46875 -4.125 -0.46875 C -5.550781 -0.46875 -6.613281 -0.695312 -7.3125 -1.15625 C -8.019531 -1.625 -8.375 -2.359375 -8.375 -3.359375 C -8.375 -4.328125 -8.015625 -5.039062 -7.296875 -5.5 C -6.585938 -5.96875 -5.53125 -6.203125 -4.125 -6.203125 Z M -4.125 -5.140625 C -5.320312 -5.140625 -6.1875 -5 -6.71875 -4.71875 C -7.257812 -4.445312 -7.53125 -3.992188 -7.53125 -3.359375 C -7.53125 -2.710938 -7.265625 -2.242188 -6.734375 -1.953125 C -6.203125 -1.671875 -5.332031 -1.53125 -4.125 -1.53125 C -2.957031 -1.53125 -2.101562 -1.671875 -1.5625 -1.953125 C -1.019531 -2.242188 -0.75 -2.703125 -0.75 -3.328125 C -0.75 -3.953125 -1.023438 -4.410156 -1.578125 -4.703125 C -2.128906 -4.992188 -2.976562 -5.140625 -4.125 -5.140625 Z M -4.125 -5.140625 "/>
</symbol>
<symbol overflow="visible" id="glyph0-2">
<path style="stroke:none;" d="M 0 -1.09375 L -1.28125 -1.09375 L -1.28125 -2.234375 L 0 -2.234375 Z M 0 -1.09375 "/>
</symbol>
<symbol overflow="visible" id="glyph0-3">
<path style="stroke:none;" d="M -2.6875 -6.171875 C -1.820312 -6.171875 -1.132812 -5.910156 -0.625 -5.390625 C -0.125 -4.878906 0.125 -4.160156 0.125 -3.234375 C 0.125 -2.472656 -0.0390625 -1.851562 -0.375 -1.375 C -0.71875 -0.90625 -1.207031 -0.609375 -1.84375 -0.484375 L -1.96875 -1.546875 C -1.15625 -1.765625 -0.75 -2.335938 -0.75 -3.265625 C -0.75 -3.828125 -0.914062 -4.269531 -1.25 -4.59375 C -1.59375 -4.914062 -2.066406 -5.078125 -2.671875 -5.078125 C -3.191406 -5.078125 -3.609375 -4.914062 -3.921875 -4.59375 C -4.242188 -4.269531 -4.40625 -3.832031 -4.40625 -3.28125 C -4.40625 -3 -4.359375 -2.734375 -4.265625 -2.484375 C -4.179688 -2.242188 -4.03125 -2 -3.8125 -1.75 L -3.8125 -0.71875 L -8.25 -1 L -8.25 -5.6875 L -7.359375 -5.6875 L -7.359375 -1.953125 L -4.734375 -1.796875 C -5.085938 -2.253906 -5.265625 -2.820312 -5.265625 -3.5 C -5.265625 -4.3125 -5.023438 -4.957031 -4.546875 -5.4375 C -4.078125 -5.925781 -3.457031 -6.171875 -2.6875 -6.171875 Z M -2.6875 -6.171875 "/>
</symbol>
<symbol overflow="visible" id="glyph0-4">
<path style="stroke:none;" d="M 0 -0.921875 L -0.890625 -0.921875 L -0.890625 -3.015625 L -7.25 -3.015625 L -5.921875 -1.15625 L -6.921875 -1.15625 L -8.25 -3.109375 L -8.25 -4.078125 L -0.890625 -4.078125 L -0.890625 -6.09375 L 0 -6.09375 Z M 0 -0.921875 "/>
</symbol>
<symbol overflow="visible" id="glyph0-5">
<path style="stroke:none;" d="M 0 -0.609375 L -0.75 -0.609375 C -1.207031 -0.804688 -1.609375 -1.046875 -1.953125 -1.328125 C -2.304688 -1.617188 -2.625 -1.921875 -2.90625 -2.234375 C -3.1875 -2.554688 -3.445312 -2.867188 -3.6875 -3.171875 C -3.9375 -3.484375 -4.179688 -3.765625 -4.421875 -4.015625 C -4.660156 -4.265625 -4.910156 -4.46875 -5.171875 -4.625 C -5.441406 -4.78125 -5.742188 -4.859375 -6.078125 -4.859375 C -6.535156 -4.859375 -6.890625 -4.722656 -7.140625 -4.453125 C -7.390625 -4.191406 -7.515625 -3.828125 -7.515625 -3.359375 C -7.515625 -2.898438 -7.390625 -2.523438 -7.140625 -2.234375 C -6.898438 -1.953125 -6.5625 -1.785156 -6.125 -1.734375 L -6.21875 -0.65625 C -6.875 -0.726562 -7.394531 -1.003906 -7.78125 -1.484375 C -8.175781 -1.972656 -8.375 -2.597656 -8.375 -3.359375 C -8.375 -4.179688 -8.175781 -4.816406 -7.78125 -5.265625 C -7.394531 -5.710938 -6.84375 -5.9375 -6.125 -5.9375 C -5.800781 -5.9375 -5.476562 -5.863281 -5.15625 -5.71875 C -4.84375 -5.570312 -4.523438 -5.351562 -4.203125 -5.0625 C -3.890625 -4.78125 -3.40625 -4.226562 -2.75 -3.40625 C -2.375 -2.957031 -2.039062 -2.597656 -1.75 -2.328125 C -1.457031 -2.066406 -1.171875 -1.878906 -0.890625 -1.765625 L -0.890625 -6.078125 L 0 -6.078125 Z M 0 -0.609375 "/>
</symbol>
<symbol overflow="visible" id="glyph0-6">
<path style="stroke:none;" d="M -2.28125 -6.140625 C -1.519531 -6.140625 -0.925781 -5.894531 -0.5 -5.40625 C -0.0820312 -4.925781 0.125 -4.238281 0.125 -3.34375 C 0.125 -2.507812 -0.0625 -1.84375 -0.4375 -1.34375 C -0.820312 -0.84375 -1.382812 -0.546875 -2.125 -0.453125 L -2.21875 -1.546875 C -1.238281 -1.691406 -0.75 -2.289062 -0.75 -3.34375 C -0.75 -3.875 -0.878906 -4.289062 -1.140625 -4.59375 C -1.410156 -4.894531 -1.800781 -5.046875 -2.3125 -5.046875 C -2.757812 -5.046875 -3.109375 -4.875 -3.359375 -4.53125 C -3.617188 -4.1875 -3.75 -3.6875 -3.75 -3.03125 L -3.75 -2.4375 L -4.65625 -2.4375 L -4.65625 -3.015625 C -4.65625 -3.585938 -4.78125 -4.03125 -5.03125 -4.34375 C -5.289062 -4.664062 -5.640625 -4.828125 -6.078125 -4.828125 C -6.523438 -4.828125 -6.875 -4.695312 -7.125 -4.4375 C -7.382812 -4.1875 -7.515625 -3.800781 -7.515625 -3.28125 C -7.515625 -2.820312 -7.394531 -2.445312 -7.15625 -2.15625 C -6.914062 -1.875 -6.578125 -1.707031 -6.140625 -1.65625 L -6.234375 -0.59375 C -6.910156 -0.675781 -7.4375 -0.957031 -7.8125 -1.4375 C -8.1875 -1.914062 -8.375 -2.535156 -8.375 -3.296875 C -8.375 -4.128906 -8.179688 -4.773438 -7.796875 -5.234375 C -7.410156 -5.691406 -6.875 -5.921875 -6.1875 -5.921875 C -5.664062 -5.921875 -5.238281 -5.769531 -4.90625 -5.46875 C -4.570312 -5.175781 -4.347656 -4.75 -4.234375 -4.1875 L -4.21875 -4.1875 C -4.144531 -4.800781 -3.9375 -5.28125 -3.59375 -5.625 C -3.25 -5.96875 -2.8125 -6.140625 -2.28125 -6.140625 Z M -2.28125 -6.140625 "/>
</symbol>
</g>
</defs>
<g id="surface16">
<rect x="0" y="0" width="504" height="504" style="fill:rgb(100%,100%,100%);fill-opacity:1;stroke:none;"/>
<path style="fill-rule:nonzero;fill:rgb(74.509804%,74.509804%,74.509804%);fill-opacity:1;stroke-width:0.75;stroke-linecap:round;stroke-linejoin:round;stroke:rgb(0%,0%,0%);stroke-opacity:1;stroke-miterlimit:10;" d="M 74.398438 426.882812 L 121.226562 426.882812 L 121.226562 59.042969 L 74.398438 59.042969 Z M 74.398438 426.882812 "/>
<path style="fill-rule:nonzero;fill:rgb(74.509804%,74.509804%,74.509804%);fill-opacity:1;stroke-width:0.75;stroke-linecap:round;stroke-linejoin:round;stroke:rgb(0%,0%,0%);stroke-opacity:1;stroke-miterlimit:10;" d="M 130.59375 426.882812 L 177.421875 426.882812 L 177.421875 190.421875 L 130.59375 190.421875 Z M 130.59375 426.882812 "/>
<path style="fill-rule:nonzero;fill:rgb(74.509804%,74.509804%,74.509804%);fill-opacity:1;stroke-width:0.75;stroke-linecap:round;stroke-linejoin:round;stroke:rgb(0%,0%,0%);stroke-opacity:1;stroke-miterlimit:10;" d="M 186.789062 426.882812 L 233.617188 426.882812 L 233.617188 263.230469 L 186.789062 263.230469 Z M 186.789062 426.882812 "/>
<path style="fill-rule:nonzero;fill:rgb(74.509804%,74.509804%,74.509804%);fill-opacity:1;stroke-width:0.75;stroke-linecap:round;stroke-linejoin:round;stroke:rgb(0%,0%,0%);stroke-opacity:1;stroke-miterlimit:10;" d="M 242.984375 426.882812 L 289.8125 426.882812 L 289.8125 298.6875 L 242.984375 298.6875 Z M 242.984375 426.882812 "/>
<path style="fill-rule:nonzero;fill:rgb(74.509804%,74.509804%,74.509804%);fill-opacity:1;stroke-width:0.75;stroke-linecap:round;stroke-linejoin:round;stroke:rgb(0%,0%,0%);stroke-opacity:1;stroke-miterlimit:10;" d="M 299.179688 426.882812 L 346.007812 426.882812 L 346.007812 324.800781 L 299.179688 324.800781 Z M 299.179688 426.882812 "/>
<path style="fill-rule:nonzero;fill:rgb(74.509804%,74.509804%,74.509804%);fill-opacity:1;stroke-width:0.75;stroke-linecap:round;stroke-linejoin:round;stroke:rgb(0%,0%,0%);stroke-opacity:1;stroke-miterlimit:10;" d="M 355.375 426.882812 L 402.203125 426.882812 L 402.203125 355.648438 L 355.375 355.648438 Z M 355.375 426.882812 "/>
<path style="fill:none;stroke-width:0.75;stroke-linecap:round;stroke-linejoin:round;stroke:rgb(0%,0%,0%);stroke-opacity:1;stroke-miterlimit:10;" d="M 411.570312 426.882812 L 458.398438 426.882812 Z M 411.570312 426.882812 "/>
<path style="fill:none;stroke-width:0.75;stroke-linecap:round;stroke-linejoin:round;stroke:rgb(0%,0%,0%);stroke-opacity:1;stroke-miterlimit:10;" d="M 59.039062 426.882812 L 59.039062 93.410156 "/>
<path style="fill:none;stroke-width:0.75;stroke-linecap:round;stroke-linejoin:round;stroke:rgb(0%,0%,0%);stroke-opacity:1;stroke-miterlimit:10;" d="M 59.039062 426.882812 L 51.839844 426.882812 "/>
<path style="fill:none;stroke-width:0.75;stroke-linecap:round;stroke-linejoin:round;stroke:rgb(0%,0%,0%);stroke-opacity:1;stroke-miterlimit:10;" d="M 59.039062 371.300781 L 51.839844 371.300781 "/>
<path style="fill:none;stroke-width:0.75;stroke-linecap:round;stroke-linejoin:round;stroke:rgb(0%,0%,0%);stroke-opacity:1;stroke-miterlimit:10;" d="M 59.039062 315.722656 L 51.839844 315.722656 "/>
<path style="fill:none;stroke-width:0.75;stroke-linecap:round;stroke-linejoin:round;stroke:rgb(0%,0%,0%);stroke-opacity:1;stroke-miterlimit:10;" d="M 59.039062 260.144531 L 51.839844 260.144531 "/>
<path style="fill:none;stroke-width:0.75;stroke-linecap:round;stroke-linejoin:round;stroke:rgb(0%,0%,0%);stroke-opacity:1;stroke-miterlimit:10;" d="M 59.039062 204.566406 L 51.839844 204.566406 "/>
<path style="fill:none;stroke-width:0.75;stroke-linecap:round;stroke-linejoin:round;stroke:rgb(0%,0%,0%);stroke-opacity:1;stroke-miterlimit:10;" d="M 59.039062 148.988281 L 51.839844 148.988281 "/>
<path style="fill:none;stroke-width:0.75;stroke-linecap:round;stroke-linejoin:round;stroke:rgb(0%,0%,0%);stroke-opacity:1;stroke-miterlimit:10;" d="M 59.039062 93.410156 L 51.839844 93.410156 "/>
<g style="fill:rgb(0%,0%,0%);fill-opacity:1;">
  <use xlink:href="#glyph0-1" x="41.625" y="442.382812"/>
  <use xlink:href="#glyph0-2" x="41.625" y="435.708984"/>
  <use xlink:href="#glyph0-1" x="41.625" y="432.375"/>
  <use xlink:href="#glyph0-1" x="41.625" y="425.701172"/>
  <use xlink:href="#glyph0-1" x="41.625" y="419.027344"/>
</g>
<g style="fill:rgb(0%,0%,0%);fill-opacity:1;">
  <use xlink:href="#glyph0-1" x="41.625" y="386.800781"/>
  <use xlink:href="#glyph0-2" x="41.625" y="380.126953"/>
  <use xlink:href="#glyph0-1" x="41.625" y="376.792969"/>
  <use xlink:href="#glyph0-1" x="41.625" y="370.119141"/>
  <use xlink:href="#glyph0-3" x="41.625" y="363.445312"/>
</g>
<g style="fill:rgb(0%,0%,0%);fill-opacity:1;">
  <use xlink:href="#glyph0-1" x="41.625" y="331.222656"/>
  <use xlink:href="#glyph0-2" x="41.625" y="324.548828"/>
  <use xlink:href="#glyph0-1" x="41.625" y="321.214844"/>
  <use xlink:href="#glyph0-4" x="41.625" y="314.541016"/>
  <use xlink:href="#glyph0-1" x="41.625" y="307.867188"/>
</g>
<g style="fill:rgb(0%,0%,0%);fill-opacity:1;">
  <use xlink:href="#glyph0-1" x="41.625" y="275.644531"/>
  <use xlink:href="#glyph0-2" x="41.625" y="268.970703"/>
  <use xlink:href="#glyph0-1" x="41.625" y="265.636719"/>
  <use xlink:href="#glyph0-4" x="41.625" y="258.962891"/>
  <use xlink:href="#glyph0-3" x="41.625" y="252.289062"/>
</g>
<g style="fill:rgb(0%,0%,0%);fill-opacity:1;">
  <use xlink:href="#glyph0-1" x="41.625" y="220.066406"/>
  <use xlink:href="#glyph0-2" x="41.625" y="213.392578"/>
  <use xlink:href="#glyph0-1" x="41.625" y="210.058594"/>
  <use xlink:href="#glyph0-5" x="41.625" y="203.384766"/>
  <use xlink:href="#glyph0-1" x="41.625" y="196.710938"/>
</g>
<g style="fill:rgb(0%,0%,0%);fill-opacity:1;">
  <use xlink:href="#glyph0-1" x="41.625" y="164.488281"/>
  <use xlink:href="#glyph0-2" x="41.625" y="157.814453"/>
  <use xlink:href="#glyph0-1" x="41.625" y="154.480469"/>
  <use xlink:href="#glyph0-5" x="41.625" y="147.806641"/>
  <use xlink:href="#glyph0-3" x="41.625" y="141.132812"/>
</g>
<g style="fill:rgb(0%,0%,0%);fill-opacity:1;">
  <use xlink:href="#glyph0-1" x="41.625" y="108.910156"/>
  <use xlink:href="#glyph0-2" x="41.625" y="102.236328"/>
  <use xlink:href="#glyph0-1" x="41.625" y="98.902344"/>
  <use xlink:href="#glyph0-6" x="41.625" y="92.228516"/>
  <use xlink:href="#glyph0-1" x="41.625" y="85.554688"/>
</g>
</g>
</svg>
